EESchema Schematic File Version 2
LIBS:power
LIBS:device
LIBS:switches
LIBS:relays
LIBS:motors
LIBS:transistors
LIBS:conn
LIBS:linear
LIBS:regul
LIBS:74xx
LIBS:cmos4000
LIBS:adc-dac
LIBS:memory
LIBS:xilinx
LIBS:microcontrollers
LIBS:dsp
LIBS:microchip
LIBS:analog_switches
LIBS:motorola
LIBS:texas
LIBS:intel
LIBS:audio
LIBS:interface
LIBS:digital-audio
LIBS:philips
LIBS:display
LIBS:cypress
LIBS:siliconi
LIBS:opto
LIBS:atmel
LIBS:contrib
LIBS:valves
EELAYER 25 0
EELAYER END
$Descr A4 11693 8268
encoding utf-8
Sheet 1 1
Title "USBasp"
Date "2017-11-15"
Rev "1"
Comp ""
Comment1 ""
Comment2 ""
Comment3 ""
Comment4 ""
$EndDescr
$Comp
L ATMEGA328P-PU U1
U 1 1 5A0C3021
P 5450 3300
F 0 "U1" H 4700 4550 50  0001 L BNN
F 1 "ATMEGA328" H 5850 1900 50  0000 L BNN
F 2 "DIL28" H 5450 3300 50  0001 C CIN
F 3 "" H 5450 3300 50  0001 C CNN
	1    5450 3300
	1    0    0    -1  
$EndComp
$Comp
L +5V #PWR?
U 1 1 5A0C3477
P 3950 2050
F 0 "#PWR?" H 3950 1900 50  0001 C CNN
F 1 "+5V" H 3950 2190 50  0000 C CNN
F 2 "" H 3950 2050 50  0001 C CNN
F 3 "" H 3950 2050 50  0001 C CNN
	1    3950 2050
	1    0    0    -1  
$EndComp
$Comp
L GND #PWR?
U 1 1 5A0C348B
P 4300 4700
F 0 "#PWR?" H 4300 4450 50  0001 C CNN
F 1 "GND" H 4300 4550 50  0000 C CNN
F 2 "" H 4300 4700 50  0001 C CNN
F 3 "" H 4300 4700 50  0001 C CNN
	1    4300 4700
	1    0    0    -1  
$EndComp
$Comp
L R R1
U 1 1 5A0C3572
P 9400 2450
F 0 "R1" V 9500 2350 50  0000 C CNN
F 1 "1k5" V 9500 2500 50  0000 C CNN
F 2 "" V 9330 2450 50  0001 C CNN
F 3 "" H 9400 2450 50  0001 C CNN
	1    9400 2450
	1    0    0    -1  
$EndComp
$Comp
L USB_A J1
U 1 1 5A0C328F
P 8700 2400
F 0 "J1" H 8500 2850 50  0001 L CNN
F 1 "USB_A" H 8500 2750 50  0000 L CNN
F 2 "" H 8850 2350 50  0001 C CNN
F 3 "" H 8850 2350 50  0001 C CNN
	1    8700 2400
	1    0    0    -1  
$EndComp
$Comp
L Crystal Y1
U 1 1 5A0C3C52
P 7100 2300
F 0 "Y1" H 7100 2450 50  0001 C CNN
F 1 "12 MHz" H 7100 2150 50  0000 C CNN
F 2 "" H 7100 2300 50  0001 C CNN
F 3 "" H 7100 2300 50  0001 C CNN
	1    7100 2300
	1    0    0    -1  
$EndComp
$Comp
L R R2
U 1 1 5A0C3EE4
P 9100 3000
F 0 "R2" V 9200 2900 50  0000 C CNN
F 1 "68R" V 9200 3050 50  0000 C CNN
F 2 "" V 9030 3000 50  0001 C CNN
F 3 "" H 9100 3000 50  0001 C CNN
	1    9100 3000
	1    0    0    -1  
$EndComp
$Comp
L R R3
U 1 1 5A0C3F1A
P 9300 3000
F 0 "R3" V 9400 2900 50  0000 C CNN
F 1 "68R" V 9400 3050 50  0000 C CNN
F 2 "" V 9230 3000 50  0001 C CNN
F 3 "" H 9300 3000 50  0001 C CNN
	1    9300 3000
	1    0    0    -1  
$EndComp
$Comp
L C C1
U 1 1 5A0C42C1
P 6800 1900
F 0 "C1" H 6825 2000 50  0000 L CNN
F 1 "27p" H 6825 1800 50  0000 L CNN
F 2 "" H 6838 1750 50  0001 C CNN
F 3 "" H 6800 1900 50  0001 C CNN
	1    6800 1900
	1    0    0    -1  
$EndComp
$Comp
L C C2
U 1 1 5A0C4498
P 7400 1900
F 0 "C2" H 7425 2000 50  0000 L CNN
F 1 "27p" H 7425 1800 50  0000 L CNN
F 2 "" H 7438 1750 50  0001 C CNN
F 3 "" H 7400 1900 50  0001 C CNN
	1    7400 1900
	1    0    0    -1  
$EndComp
$Comp
L GND #PWR?
U 1 1 5A0C44CF
P 7800 1450
F 0 "#PWR?" H 7800 1200 50  0001 C CNN
F 1 "GND" V 7800 1250 50  0000 C CNN
F 2 "" H 7800 1450 50  0001 C CNN
F 3 "" H 7800 1450 50  0001 C CNN
	1    7800 1450
	0    -1   -1   0   
$EndComp
$Comp
L Conn_02x05_Top_Bottom J1
U 1 1 5A0C4A42
P 8150 5050
F 0 "J1" H 8200 5350 50  0001 C CNN
F 1 "Conn_02x05_Top_Bottom" H 8200 4750 50  0001 C CNN
F 2 "" H 8150 5050 50  0001 C CNN
F 3 "" H 8150 5050 50  0001 C CNN
	1    8150 5050
	1    0    0    -1  
$EndComp
NoConn ~ 8450 5150
$Comp
L CP C3
U 1 1 5A0C500A
P 3950 2500
F 0 "C3" H 3975 2600 50  0000 L CNN
F 1 "4.7µF" H 3975 2400 50  0000 L CNN
F 2 "" H 3988 2350 50  0001 C CNN
F 3 "" H 3950 2500 50  0001 C CNN
	1    3950 2500
	1    0    0    -1  
$EndComp
$Comp
L GND #PWR?
U 1 1 5A0C5409
P 3950 2900
F 0 "#PWR?" H 3950 2650 50  0001 C CNN
F 1 "GND" H 3950 2750 50  0000 C CNN
F 2 "" H 3950 2900 50  0001 C CNN
F 3 "" H 3950 2900 50  0001 C CNN
	1    3950 2900
	1    0    0    -1  
$EndComp
$Comp
L R R4
U 1 1 5A0C5CC3
P 7750 2250
F 0 "R4" V 7850 2100 50  0000 C CNN
F 1 "330R" V 7850 2300 50  0000 C CNN
F 2 "" V 7680 2250 50  0001 C CNN
F 3 "" H 7750 2250 50  0001 C CNN
	1    7750 2250
	1    0    0    -1  
$EndComp
$Comp
L R R5
U 1 1 5A0C5DD2
P 8050 2250
F 0 "R5" V 8150 2100 50  0000 C CNN
F 1 "330R" V 8150 2300 50  0000 C CNN
F 2 "" V 7980 2250 50  0001 C CNN
F 3 "" H 8050 2250 50  0001 C CNN
	1    8050 2250
	1    0    0    -1  
$EndComp
$Comp
L LED_Small_ALT D1
U 1 1 5A0C62E5
P 7750 2700
F 0 "D1" H 7550 2600 50  0001 L CNN
F 1 "Green" H 7650 2600 50  0000 L CNN
F 2 "" V 7750 2700 50  0001 C CNN
F 3 "" V 7750 2700 50  0001 C CNN
	1    7750 2700
	0    -1   -1   0   
$EndComp
$Comp
L LED_Small_ALT D2
U 1 1 5A0C669E
P 8050 2700
F 0 "D2" H 7850 2600 50  0001 L CNN
F 1 "Red" H 8000 2600 50  0000 L CNN
F 2 "" V 8050 2700 50  0001 C CNN
F 3 "" V 8050 2700 50  0001 C CNN
	1    8050 2700
	0    -1   -1   0   
$EndComp
$Comp
L +5V #PWR?
U 1 1 5A0C697D
P 8300 1750
F 0 "#PWR?" H 8300 1600 50  0001 C CNN
F 1 "+5V" V 8300 1950 50  0000 C CNN
F 2 "" H 8300 1750 50  0001 C CNN
F 3 "" H 8300 1750 50  0001 C CNN
	1    8300 1750
	0    1    1    0   
$EndComp
$Comp
L R R6
U 1 1 5A0C6E9E
P 6850 4850
F 0 "R6" V 6950 4750 50  0000 C CNN
F 1 "10K" V 6950 4900 50  0000 C CNN
F 2 "" V 6780 4850 50  0001 C CNN
F 3 "" H 6850 4850 50  0001 C CNN
	1    6850 4850
	0    1    1    0   
$EndComp
$Comp
L R R7
U 1 1 5A0C70B9
P 6800 5150
F 0 "R7" V 6900 5000 50  0000 C CNN
F 1 "270R" V 6900 5200 50  0000 C CNN
F 2 "" V 6730 5150 50  0001 C CNN
F 3 "" H 6800 5150 50  0001 C CNN
	1    6800 5150
	0    1    1    0   
$EndComp
$Comp
L SW_Push BTN1
U 1 1 5A0C7393
P 6900 3650
F 0 "BTN1" H 6950 3750 50  0001 L CNN
F 1 "Reset" H 6900 3590 50  0000 C CNN
F 2 "" H 6900 3850 50  0001 C CNN
F 3 "" H 6900 3850 50  0001 C CNN
	1    6900 3650
	1    0    0    -1  
$EndComp
$Comp
L Polyfuse F1
U 1 1 5A0C7529
P 8700 3100
F 0 "F1" V 8600 3100 50  0001 C CNN
F 1 "0.5A" V 8800 3100 50  0001 C CNN
F 2 "" H 8750 2900 50  0001 L CNN
F 3 "" H 8700 3100 50  0001 C CNN
	1    8700 3100
	1    0    0    -1  
$EndComp
$Comp
L SW_DIP_x01 SW1
U 1 1 5A0C8090
P 7100 4500
F 0 "SW1" H 7100 4650 50  0000 C CNN
F 1 "Self programming" H 7100 4350 50  0000 C CNN
F 2 "" H 7100 4500 50  0001 C CNN
F 3 "" H 7100 4500 50  0001 C CNN
	1    7100 4500
	1    0    0    -1  
$EndComp
$Comp
L SW_DIP_x01 SW2
U 1 1 5A0C8385
P 8250 3750
F 0 "SW2" H 8250 3900 50  0000 C CNN
F 1 "Slow SCK" H 8250 3600 50  0000 C CNN
F 2 "" H 8250 3750 50  0001 C CNN
F 3 "" H 8250 3750 50  0001 C CNN
	1    8250 3750
	1    0    0    -1  
$EndComp
$Comp
L +5V #PWR?
U 1 1 5A0C8D0A
P 6700 5600
F 0 "#PWR?" H 6700 5450 50  0001 C CNN
F 1 "+5V" H 6700 5740 50  0000 C CNN
F 2 "" H 6700 5600 50  0001 C CNN
F 3 "" H 6700 5600 50  0001 C CNN
	1    6700 5600
	0    -1   -1   0   
$EndComp
$Comp
L SW_DIP_x01 SW3
U 1 1 5A0C8F60
P 7300 5600
F 0 "SW3" H 7300 5750 50  0000 C CNN
F 1 "Device power" H 7300 5450 50  0000 C CNN
F 2 "" H 7300 5600 50  0001 C CNN
F 3 "" H 7300 5600 50  0001 C CNN
	1    7300 5600
	1    0    0    -1  
$EndComp
$Comp
L GND #PWR?
U 1 1 5A0C9276
P 7500 5250
F 0 "#PWR?" H 7500 5000 50  0001 C CNN
F 1 "GND" H 7500 5100 50  0000 C CNN
F 2 "" H 7500 5250 50  0001 C CNN
F 3 "" H 7500 5250 50  0001 C CNN
	1    7500 5250
	1    0    0    -1  
$EndComp
$Comp
L +5V #PWR?
U 1 1 5A0C988D
P 7200 4850
F 0 "#PWR?" H 7200 4700 50  0001 C CNN
F 1 "+5V" V 7200 5050 50  0000 C CNN
F 2 "" H 7200 4850 50  0001 C CNN
F 3 "" H 7200 4850 50  0001 C CNN
	1    7200 4850
	0    1    1    0   
$EndComp
$Comp
L +5V #PWR?
U 1 1 5A0C9DC2
P 9650 2200
F 0 "#PWR?" H 9650 2050 50  0001 C CNN
F 1 "+5V" V 9650 2400 50  0000 C CNN
F 2 "" H 9650 2200 50  0001 C CNN
F 3 "" H 9650 2200 50  0001 C CNN
	1    9650 2200
	0    1    1    0   
$EndComp
$Comp
L GND #PWR?
U 1 1 5A0CA576
P 7200 3650
F 0 "#PWR?" H 7200 3400 50  0001 C CNN
F 1 "GND" V 7200 3450 50  0000 C CNN
F 2 "" H 7200 3650 50  0001 C CNN
F 3 "" H 7200 3650 50  0001 C CNN
	1    7200 3650
	0    -1   -1   0   
$EndComp
Wire Wire Line
	4550 4500 4300 4500
Wire Wire Line
	4300 4500 4300 4700
Wire Wire Line
	9000 2200 9650 2200
Wire Wire Line
	9400 2200 9400 2300
Connection ~ 9400 2200
Wire Wire Line
	9000 2400 9300 2400
Wire Wire Line
	9300 2400 9300 2850
Wire Wire Line
	9000 2500 9100 2500
Wire Wire Line
	9100 2500 9100 2850
Connection ~ 9100 2750
Wire Wire Line
	9100 2750 9400 2750
Wire Wire Line
	9400 2750 9400 2600
Wire Wire Line
	9300 3150 9300 4000
Wire Wire Line
	6800 1450 7800 1450
Wire Wire Line
	6800 1450 6800 1750
Connection ~ 7400 1450
Wire Wire Line
	7400 1750 7400 1450
Wire Wire Line
	6800 2800 6450 2800
Wire Wire Line
	6800 2050 6800 2800
Wire Wire Line
	7400 2900 6450 2900
Wire Wire Line
	7400 2050 7400 2900
Connection ~ 7400 2300
Connection ~ 6800 2300
Wire Wire Line
	6950 2300 6800 2300
Wire Wire Line
	7400 2300 7250 2300
Wire Wire Line
	3950 2900 3950 2650
Wire Wire Line
	3950 2050 3950 2350
Connection ~ 3950 2200
Wire Wire Line
	4550 2200 3950 2200
Wire Wire Line
	9300 4000 6450 4000
Wire Wire Line
	7750 2800 7750 3050
Wire Wire Line
	7750 3050 6450 3050
Wire Wire Line
	8050 2800 8050 3150
Wire Wire Line
	8050 3150 6450 3150
Wire Wire Line
	8050 2400 8050 2600
Wire Wire Line
	7750 2400 7750 2600
Wire Wire Line
	7750 2100 7750 1750
Wire Wire Line
	7750 1750 8300 1750
Connection ~ 8050 1750
Wire Wire Line
	8050 2100 8050 1750
Wire Wire Line
	8700 2950 8700 2800
Wire Wire Line
	7000 5600 6700 5600
Wire Wire Line
	7600 5600 7700 5600
Wire Wire Line
	7700 5600 7700 5250
Wire Wire Line
	7700 5250 7950 5250
Wire Wire Line
	7200 4850 7000 4850
Wire Wire Line
	6600 3650 6600 4850
Wire Wire Line
	6450 3650 6700 3650
Connection ~ 6600 3650
Wire Wire Line
	8450 5050 8750 5050
Wire Wire Line
	8750 5050 8750 4500
Wire Wire Line
	8750 4500 7400 4500
Wire Wire Line
	6600 4500 6800 4500
Wire Wire Line
	6600 3400 7850 3400
Connection ~ 7850 4500
Wire Wire Line
	7850 3400 7850 4500
Wire Wire Line
	6600 2400 6450 2400
Wire Wire Line
	6600 3400 6600 2400
Wire Wire Line
	9100 4200 9100 3150
Wire Wire Line
	6450 4200 9100 4200
Wire Wire Line
	6600 4850 6700 4850
Connection ~ 6600 4500
Wire Wire Line
	6450 2300 6700 2300
Wire Wire Line
	6700 2300 6700 3450
Wire Wire Line
	6700 3450 7750 3450
Wire Wire Line
	7750 3450 7750 4200
Connection ~ 7750 4200
Wire Wire Line
	6450 3800 7650 3800
Wire Wire Line
	7650 3800 7650 5050
Wire Wire Line
	7650 5050 7950 5050
Wire Wire Line
	6450 2200 6550 2200
Wire Wire Line
	6550 2200 6550 3500
Wire Wire Line
	6550 3500 7550 3500
Wire Wire Line
	7550 3500 7550 4850
Wire Wire Line
	7550 4850 7950 4850
Wire Wire Line
	7200 3650 7100 3650
Wire Wire Line
	7950 4950 7500 4950
Wire Wire Line
	7500 4950 7500 5250
Wire Wire Line
	6450 3900 6500 3900
Wire Wire Line
	6500 3900 6500 5150
Wire Wire Line
	6500 5150 6650 5150
Wire Wire Line
	7950 5150 6950 5150
$Comp
L GND #PWR?
U 1 1 5A0CC4A4
P 8800 3750
F 0 "#PWR?" H 8800 3500 50  0001 C CNN
F 1 "GND" V 8800 3550 50  0000 C CNN
F 2 "" H 8800 3750 50  0001 C CNN
F 3 "" H 8800 3750 50  0001 C CNN
	1    8800 3750
	0    -1   -1   0   
$EndComp
Wire Wire Line
	6450 3250 7900 3250
Wire Wire Line
	7900 3250 7900 3750
Wire Wire Line
	7900 3750 7950 3750
Wire Wire Line
	8550 3750 8800 3750
Wire Wire Line
	8700 3750 8700 3250
Connection ~ 8700 3750
Wire Wire Line
	6450 2700 7150 2700
Wire Wire Line
	7150 2700 7150 2950
Wire Wire Line
	7150 2950 8550 2950
Wire Wire Line
	8550 2950 8550 3350
Wire Wire Line
	8550 3350 9450 3350
Wire Wire Line
	9450 3350 9450 4950
Wire Wire Line
	9450 4950 8450 4950
Wire Wire Line
	6450 2600 7550 2600
Wire Wire Line
	7550 2600 7550 3350
Wire Wire Line
	7550 3350 8400 3350
Wire Wire Line
	8400 3350 8400 3500
Wire Wire Line
	8400 3500 8600 3500
Wire Wire Line
	8600 3500 8600 4850
Wire Wire Line
	8600 4850 8450 4850
Wire Wire Line
	6450 2500 7100 2500
Wire Wire Line
	7100 2500 7100 4100
Wire Wire Line
	7100 4100 8900 4100
Wire Wire Line
	8900 4100 8900 5250
Wire Wire Line
	8900 5250 8450 5250
Text Notes 7800 5250 0    60   ~ 0
CLK\nGND\nRXD\nTXD\nVCC
Text Notes 8450 5250 0    60   ~ 0
MISO\nSCK\nRESET\nNC\nMOSI
$EndSCHEMATC
